<svg width="17" height="16" viewBox="0 0 17 16" fill="none" xmlns="http://www.w3.org/2000/svg">
<path d="M13.4501 0.357142C14.2469 0.357142 14.9266 0.64174 15.4891 1.21094C16.0583 1.77344 16.3429 2.45312 16.3429 3.25V12.8929C16.3429 13.6897 16.0583 14.3694 15.4891 14.9319C14.9266 15.5011 14.2469 15.7857 13.4501 15.7857H11.5617V9.80915H13.5605L13.8619 7.47879H11.5617V5.99219C11.5617 5.61719 11.6387 5.33594 11.7927 5.14844C11.9534 4.96094 12.2614 4.86719 12.7168 4.86719L13.9422 4.85714V2.7779C13.5204 2.71763 12.9244 2.6875 12.1543 2.6875C11.2436 2.6875 10.5137 2.95536 9.96456 3.49107C9.42215 4.02678 9.15094 4.78348 9.15094 5.76116V7.47879H7.14202V9.80915H9.15094V15.7857H3.80719C3.01032 15.7857 2.32728 15.5011 1.75809 14.9319C1.19559 14.3694 0.914337 13.6897 0.914337 12.8929V3.25C0.914337 2.45312 1.19559 1.77344 1.75809 1.21094C2.32728 0.64174 3.01032 0.357142 3.80719 0.357142H13.4501Z" fill="#4267B2"/>
</svg>
